<?xml version="1.0" encoding="utf-8"?>
<!-- Generator: Adobe Illustrator 16.0.0, SVG Export Plug-In . SVG Version: 6.00 Build 0)  -->
<!DOCTYPE svg PUBLIC "-//W3C//DTD SVG 1.1//EN" "http://www.w3.org/Graphics/SVG/1.1/DTD/svg11.dtd">
<svg version="1.1" id="Layer_1" xmlns="http://www.w3.org/2000/svg" xmlns:xlink="http://www.w3.org/1999/xlink" x="0px" y="0px"
	 width="55px" height="30px" viewBox="72.5 85 55 30" enable-background="new 72.5 85 55 30" xml:space="preserve">
<path fill="#4D4E4E" d="M127.5,100c0,8.284-6.717,15-15,15h-25c-8.285,0-15-6.716-15-15l0,0c0-8.284,6.715-15,15-15h25
	C120.784,85,127.5,91.716,127.5,100L127.5,100z"/>
<path fill="#FFFFFF" d="M91.028,107.21c0-4.812,0-9.623,0-14.434c0.24-0.932,0.828-1.512,1.754-1.756c4.812,0,9.625,0,14.438,0
	c0.932,0.238,1.52,0.82,1.754,1.756c0,4.811,0,9.621,0,14.434c-0.33,1.258-1.187,1.781-2.597,1.771
	c-4.358-0.039-8.715-0.015-13.072-0.017c-0.186,0-0.373-0.004-0.555-0.039C91.793,108.743,91.278,108.109,91.028,107.21z
	 M105.379,98.618c0.869,3.852-2.088,6.864-5.283,6.896c-1.512,0.012-2.848-0.49-3.928-1.562c-1.488-1.472-1.941-3.269-1.523-5.316
	c-0.531,0-1.025,0-1.545,0c0,0.148,0,0.268,0,0.385c0,2.314,0,4.625,0,6.938c0,0.727,0.215,0.941,0.953,0.941
	c3.959,0.002,7.919,0.002,11.882,0c0.763,0,0.972-0.209,0.972-0.965c0.002-2.312,0.002-4.625,0-6.938
	c0-0.123-0.013-0.25-0.019-0.379C106.364,98.618,105.887,98.618,105.379,98.618z M99.991,103.454
	c1.891,0.002,3.459-1.545,3.471-3.424c0.011-1.91-1.545-3.49-3.445-3.496c-1.896-0.008-3.479,1.57-3.475,3.469
	C96.545,101.884,98.108,103.448,99.991,103.454z M103.465,94.804c0,0.334-0.006,0.664,0,0.996c0.01,0.477,0.232,0.723,0.699,0.73
	c0.678,0.014,1.352,0.012,2.029,0c0.445-0.008,0.697-0.25,0.707-0.687c0.016-0.688,0.016-1.379,0-2.07
	c-0.01-0.408-0.271-0.668-0.685-0.676c-0.688-0.014-1.379-0.014-2.067,0c-0.433,0.006-0.67,0.27-0.683,0.711
	C103.459,94.142,103.465,94.474,103.465,94.804z"/>
</svg>
